AMG Group
10
RLUBUBLYBBRRLBYURLBULULLRURBBYBBYLLYRYLRULURULBBYURYBUYYLBYB
LLLYYUUU
F
RUBU
YUYY
RBUY
RLYR
RURY
1
2
ABC
2
..R..
L....
.L...
.....
.....
.
..
...
BBB.
RR...

DEF
3
..R..
.....
...Y.
.U...
.....
.
L.
...
....
.....

